﻿{
  "Header": {
    "CreatedBy": " ()",
    "Date": "8/21/2015 10:23:25 AM",
    "AppVersion": "2.2 beta-2",
    "FileVersion": 1
  },
  "Body": {
    "Settings": {
      "Air Density [kg/m3]": 1.188,
      "CO2/FC [-]": 3.16,
      "Fuel Density [kg/l]": 0.832,
      "Distance Correction": true
    },
    "Results": [
      {
        "Job": "24t Coach-1Gear.vecto",
        "Cycle": "Coach_24t_InitTest.vdri",
        "Loading": "User-defined Loading",
        "AbortedByError": false,
        "Results": {
          "time": {
            "Value": 11,
            "Unit": "[s]"
          },
          "distance": {
            "Value": 0.055,
            "Unit": "[km]"
          },
          "speed": {
            "Value": 18.0,
            "Unit": "[km/h]"
          },
          "∆altitude": {
            "Value": 1.56347656,
            "Unit": "[m]"
          },
          "Ppos": {
            "Value": 36.272842407226563,
            "Unit": "[kW]"
          },
          "Pneg": {
            "Value": 0.0,
            "Unit": "[kW]"
          },
          "FC-Map": [
            {
              "Value": 8311.801,
              "Unit": "[g/h]"
            },
            {
              "Value": 461.766724,
              "Unit": "[g/km]"
            }
          ],
          "FC-AUXc": [
            {
              "Value": "-",
              "Unit": "[g/h]"
            },
            {
              "Value": "-",
              "Unit": "[g/km]"
            }
          ],
          "FC-WHTCc": [
            {
              "Value": "-",
              "Unit": "[g/h]"
            },
            {
              "Value": "-",
              "Unit": "[g/km]"
            }
          ],
          "CO2": [
            {
              "Value": 1459.18286,
              "Unit": "[g/km]"
            },
            {
              "Value": 442.176636,
              "Unit": "[g/tkm]"
            }
          ],
          "FC-Final": [
            {
              "Value": 461.766724,
              "Unit": "[g/km]"
            },
            {
              "Value": 16.818428,
              "Unit": "[l/100tkm]"
            },
            {
              "Value": 55.50081,
              "Unit": "[l/100km]"
            }
          ],
          "PwheelPos": {
            "Value": 32.686927795410156,
            "Unit": "[kW]"
          },
          "Pbrake": {
            "Value": 0.0,
            "Unit": "[kW]"
          },
          "EposICE": {
            "Value": 0.11083368513319228,
            "Unit": "[kWh]"
          },
          "EnegICE": {
            "Value": 0.0,
            "Unit": "[kWh]"
          },
          "Eair": {
            "Value": -0.00074038388828436528,
            "Unit": "[kWh]"
          },
          "Eroll": {
            "Value": -0.018228915797339547,
            "Unit": "[kWh]"
          },
          "Egrad": {
            "Value": -0.0809074264102512,
            "Unit": "[kWh]"
          },
          "Eacc": {
            "Value": 0.0,
            "Unit": "[kWh]"
          },
          "Eaux": {
            "Value": 0.0,
            "Unit": "[kWh]"
          },
          "Ebrake": {
            "Value": 0.0,
            "Unit": "[kWh]"
          },
          "Etransm": {
            "Value": -0.010956964227888319,
            "Unit": "[kWh]"
          },
          "Eretarder": {
            "Value": 0.0,
            "Unit": "[kWh]"
          },
          "Etorqueconv": {
            "Value": 0.0,
            "Unit": "[kWh]"
          },
          "Mass": {
            "Value": 15700.0,
            "Unit": "[kg]"
          },
          "Loading": {
            "Value": 3300.0,
            "Unit": "[kg]"
          },
          "a": {
            "Value": "0",
            "Unit": "[m/s^2]"
          },
          "a_pos": {
            "Value": "0",
            "Unit": "[m/s^2]"
          },
          "a_neg": {
            "Value": "0",
            "Unit": "[m/s^2]"
          },
          "Acc.Noise": {
            "Value": "0",
            "Unit": "[m/s^2]"
          },
          "pAcc": {
            "Value": "0",
            "Unit": "[%]"
          },
          "pDec": {
            "Value": "0",
            "Unit": "[%]"
          },
          "pCruise": {
            "Value": "1",
            "Unit": "[%]"
          },
          "pStop": {
            "Value": "0",
            "Unit": "[%]"
          }
        }
      },
      {
        "Job": "24t Coach-1Gear.vecto",
        "Cycle": "1-Gear-Test-dist.vdri",
        "Loading": "User-defined Loading",
        "AbortedByError": false,
        "Results": {
          "time": {
            "Value": 4116,
            "Unit": "[s]"
          },
          "distance": {
            "Value": 16.808445,
            "Unit": "[km]"
          },
          "speed": {
            "Value": 14.7012644,
            "Unit": "[km/h]"
          },
          "∆altitude": {
            "Value": -43.9579468,
            "Unit": "[m]"
          },
          "Ppos": {
            "Value": 10.472268851291103,
            "Unit": "[kW]"
          },
          "Pneg": {
            "Value": -1.9331802417342239,
            "Unit": "[kW]"
          },
          "FC-Map": [
            {
              "Value": 2854.64819,
              "Unit": "[g/h]"
            },
            {
              "Value": 194.177048,
              "Unit": "[g/km]"
            }
          ],
          "FC-AUXc": [
            {
              "Value": "-",
              "Unit": "[g/h]"
            },
            {
              "Value": "-",
              "Unit": "[g/km]"
            }
          ],
          "FC-WHTCc": [
            {
              "Value": "-",
              "Unit": "[g/h]"
            },
            {
              "Value": "-",
              "Unit": "[g/km]"
            }
          ],
          "CO2": [
            {
              "Value": 613.5995,
              "Unit": "[g/km]"
            },
            {
              "Value": 185.93924,
              "Unit": "[g/tkm]"
            }
          ],
          "FC-Final": [
            {
              "Value": 194.177048,
              "Unit": "[g/km]"
            },
            {
              "Value": 7.07229948,
              "Unit": "[l/100tkm]"
            },
            {
              "Value": 23.3385887,
              "Unit": "[l/100km]"
            }
          ],
          "PwheelPos": {
            "Value": 9.0411471980537925,
            "Unit": "[kW]"
          },
          "Pbrake": {
            "Value": -3.3589940037980197,
            "Unit": "[kW]"
          },
          "EposICE": {
            "Value": 11.973294053309493,
            "Unit": "[kWh]"
          },
          "EnegICE": {
            "Value": -2.2102694097161293,
            "Unit": "[kWh]"
          },
          "Eair": {
            "Value": -0.20120723258350659,
            "Unit": "[kWh]"
          },
          "Eroll": {
            "Value": -5.5715248703791032,
            "Unit": "[kWh]"
          },
          "Egrad": {
            "Value": 2.2750119970143876,
            "Unit": "[kWh]"
          },
          "Eacc": {
            "Value": -0.083881171300179427,
            "Unit": "[kWh]"
          },
          "Eaux": {
            "Value": 0.0,
            "Unit": "[kWh]"
          },
          "Ebrake": {
            "Value": -3.8404498110090692,
            "Unit": "[kWh]"
          },
          "Etransm": {
            "Value": -2.3409734544157983,
            "Unit": "[kWh]"
          },
          "Eretarder": {
            "Value": 0.0,
            "Unit": "[kWh]"
          },
          "Etorqueconv": {
            "Value": 0.0,
            "Unit": "[kWh]"
          },
          "Mass": {
            "Value": 15700.0,
            "Unit": "[kg]"
          },
          "Loading": {
            "Value": 3300.0,
            "Unit": "[kg]"
          },
          "a": {
            "Value": "0.001349746",
            "Unit": "[m/s^2]"
          },
          "a_pos": {
            "Value": "0.5755603",
            "Unit": "[m/s^2]"
          },
          "a_neg": {
            "Value": "-0.2358637",
            "Unit": "[m/s^2]"
          },
          "Acc.Noise": {
            "Value": "0.04782489",
            "Unit": "[m/s^2]"
          },
          "pAcc": {
            "Value": "0.002429543",
            "Unit": "[%]"
          },
          "pDec": {
            "Value": "0.000728863",
            "Unit": "[%]"
          },
          "pCruise": {
            "Value": "0.9963557",
            "Unit": "[%]"
          },
          "pStop": {
            "Value": "0.0004859086",
            "Unit": "[%]"
          }
        }
      }
    ]
  }
}